{
    "metadata_variables": [],
    "variables": [
        {
            "always_observed": true,
            "group_name": "coldaisle9_temperature",
            "lower": -0.28791976521985724,
            "name": "coldaisle9_temperature",
            "query": true,
            "target": false,
            "type": "continuous",
            "upper": 0.475098684497348
            ,"is_latent": false
        },
        {
            "always_observed": true,
            "group_name": "coldaisle10_temperature",
            "lower": -0.10323903104163477,
            "name": "coldaisle10_temperature",
            "query": true,
            "target": false,
            "type": "continuous",
            "upper": 0.9179705111322567
            ,"is_latent": false
        },
        {
            "always_observed": true,
            "group_name": "coldaisle11_temperature",
            "lower": 0.018854031574372584,
            "name": "coldaisle11_temperature",
            "query": true,
            "target": false,
            "type": "continuous",
            "upper": 0.5124574149059558
            ,"is_latent": false
        },
        {
            "always_observed": true,
            "group_name": "coldaisle12_temperature",
            "lower": -0.2532444478721728,
            "name": "coldaisle12_temperature",
            "query": true,
            "target": false,
            "type": "continuous",
            "upper": 0.46584831115794084
            ,"is_latent": false
        },
        {
            "always_observed": true,
            "group_name": "coldaisle13_temperature",
            "lower": 0.014269143782657279,
            "name": "coldaisle3_temperature",
            "query": true,
            "target": false,
            "type": "continuous",
            "upper": 2.0140424462928634
            ,"is_latent": false
        },
        {
            "always_observed": true,
            "group_name": "coldaisle14_temperature",
            "lower": 0.31879453180800305,
            "name": "coldaisle4_temperature",
            "query": true,
            "target": false,
            "type": "continuous",
            "upper": 1.8023910853876999
            ,"is_latent": false
        },
        {
            "always_observed": true,
            "group_name": "coldaisle15_temperature",
            "lower": -0.08213808089737279,
            "name": "coldaisle5_temperature",
            "query": true,
            "target": false,
            "type": "continuous",
            "upper": 1.7490184601204153
            ,"is_latent": false
        },
        {
            "always_observed": true,
            "group_name": "coldaisle16_temperature",
            "lower": 0.0956759735405031,
            "name": "coldaisle16_temperature",
            "query": true,
            "target": false,
            "type": "continuous",
            "upper": 0.48703337419035336
            ,"is_latent": false
        },
        {
            "always_observed": true,
            "group_name": "coldaisle17_temperature",
            "lower": -0.14033257871914173,
            "name": "coldaisle7_temperature",
            "query": true,
            "target": false,
            "type": "continuous",
            "upper": 0.24101077455961023
            ,"is_latent": false
        }
    ]
}




